{
  "products": [
    {
      "id": 1,
      "name": "Monitor 19 pol.",
      "price": 485.01
    },
    {
      "id": 2,
      "name": "Monitor 27 pol.",
      "price": 975.23
    },
    {
      "id": 3,
      "name": "Notebook Dell.",
      "price": 3975.23
    },
    {
      "name": "Monitor LG",
      "price": "578.45",
      "id": 4
    }
  ]
}